[
  {
    "model": "users.user",
    "fields": {
      "password": "argon2$argon2id$v=19$m=102400,t=2,p=8$THBuZnZ5QXJtNUVaaWQxSTNIbGpiWg$LyfXdTk6PTh2dnPLeAa3JHU12JLsHvKcEdcurL8D05M",
      "is_superuser": true,
      "username": "admin",
      "email": "admin@admin.com",
      "is_staff": true,
      "is_active": true,
      "first_name": "admin"
    }
  }
]
